{
    "Employee": {
        "User": {
            "Email":"MurphyCarr@gmail.com"
        }
    },
    "StaffWorkSchedule": {
        "Day": "2020-08-28",
        "StartTime": "12:00:00",
        "EndTime": "16:00:00"
    }
}