{
    "Employee": {
        "User": {
            "Email":"MurphyCarr@gmail.com"
        }
    },
    "StaffWorkSchedule": {
        "Day": "2020-08-26",
        "StartTime": "7:00:00",
        "EndTime": "15:00:00"
    }
}