{
  "Guest": {
    "OS": "MacOs",
    "Browser": "Safari",
    "IPv4": "200.200.1.70",
    "SessionConnect": "2020-07-13 16:12:28",
    "Flag":"Login"
  },
  "Login": {
    "Email": "ClarissaGarner@gmail.com"
  }
}