{
    "Employee": {
        "User": {
            "Email": "ClaraGrimes@gmail.com"
        }
    },
    "StaffWorkSchedule": {
        "Day": "2020-09-01",
        "StartTime": "7:00:00",
        "EndTime": "15:00:00"
    }
}