{
    "Employee": {
        "User": {
            "Email": "DesireeHurst@gmail.com"
        }
    },
    "StaffWorkSchedule": {
        "Day": "2020-09-02",
        "StartTime": "8:00:00",
        "EndTime": "15:00:00"
    }
}