{
    "Employee": {
        "User": {
            "Email": "MurphyCarr@gmail.com"
        }
    },
    "StaffWorkSchedule": {
        "Day": "2020-09-01",
        "StartTime": "9:00:00",
        "EndTime": "16:00:00"
    }
}