{
  "Guest": {
    "OS": "Windows 10",
    "Browser": "Chrome",
    "IPv4": "192.288.1.80",
    "SessionConnect": "2019-12-12 12:12:28",
    "Flag":"Registration"
  },
  "User": {
    "FirstName": "Rosella",
    "LastName": "Barnett",
    "Phone": "19684812769",
    "Passport": "7266941T933BY3",
    "PasswordHashSHA1": "aa5db8095811c21c4a36592184379c368b0d782f",
    "Email": "RosellaBarnett@gmail.com"
  }
}